…
-   Reformat data

*1.* route number and route name are distinct variables

``` r
nyc_transit_tidy = 
  nyc_transit %>% 
  gather(key = "route_number", value = "route_name", route1:route11) %>% 
  separate(route_number, into = c("route_str", "route_num"), sep = 5) %>% 
  select(-route_str)
nyc_transit_tidy
```

    ## # A tibble: 20,548 x 10
    ##    line  station_name station_latitude station_longitu… entrance_type entry
    ##    <chr> <chr>                   <dbl>            <dbl> <chr>         <lgl>
    ##  1 4 Av… 25th St                  40.7            -74.0 Stair         TRUE 
    ##  2 4 Av… 25th St                  40.7            -74.0 Stair         TRUE 
    ##  3 4 Av… 36th St                  40.7            -74.0 Stair         TRUE 
    ##  4 4 Av… 36th St                  40.7            -74.0 Stair         TRUE 
    ##  5 4 Av… 36th St                  40.7            -74.0 Stair         TRUE 
    ##  6 4 Av… 45th St                  40.6            -74.0 Stair         TRUE 
    ##  7 4 Av… 45th St                  40.6            -74.0 Stair         TRUE 
    ##  8 4 Av… 45th St                  40.6            -74.0 Stair         TRUE 
    ##  9 4 Av… 45th St                  40.6            -74.0 Stair         TRUE 
    ## 10 4 Av… 53rd St                  40.6            -74.0 Stair         TRUE 
    ## # ... with 20,538 more rows, and 4 more variables: vending <chr>,
    ## #   ada <lgl>, route_num <chr>, route_name <chr>
…
3.Combine datasets and convert month to a character variable

``` r
combo_16_17 = bind_rows(prcp_2016, prcp_2017) %>% 
  mutate(month = month.name[month])
combo_16_17
```

    ## # A tibble: 24 x 3
    ##    month     total  year
    ##    <chr>     <dbl> <dbl>
    ##  1 January    3.23  2016
    ##  2 February   5.32  2016
    ##  3 March      2.24  2016
    ##  4 April      1.78  2016
    ##  5 May        5.19  2016
    ##  6 June       3.2   2016
    ##  7 July       6.09  2016
    ##  8 August     3.96  2016
    ##  9 September  4.53  2016
    ## 10 October    0.62  2016
    ## # ... with 14 more rows
…
